{
  "Routes": [
    {
      "DownstreamPathTemplate": "/api/SEC/{everything}",
      "DownstreamScheme": "https",
      "DownstreamHostAndPorts": [
        {
          "Host": "hris-sit-as-core.azurewebsites.net",
          "Port": "443"
        }
      ],
      "UpstreamPathTemplate": "/{version}/SEC/{everything}",
      "UpstreamHttpMethod": ["GET", "POST", "PUT", "DELETE"],
      "SwaggerKey": "core"
    },
    {
      "DownstreamPathTemplate": "/api/CAM/{everything}",
      "DownstreamScheme": "hris-sit-as-core.azurewebsites.net",
      "DownstreamHostAndPorts": [
        {
          "Host": "localhost",
          "Port": "443"
        }
      ],
      "UpstreamPathTemplate": "/{version}/CAM/{everything}",
      "UpstreamHttpMethod": ["GET", "POST", "PUT", "DELETE"],
      "SwaggerKey": "core"
    },
    {
      "DownstreamPathTemplate": "/api/CFG/{everything}",
      "DownstreamScheme": "https",
      "DownstreamHostAndPorts": [
        {
          "Host": "hris-sit-as-core.azurewebsites.net",
          "Port": "443"
        }
      ],
      "UpstreamPathTemplate": "/{version}/CFG/{everything}",
      "UpstreamHttpMethod": ["GET", "POST", "PUT", "DELETE"],
      "SwaggerKey": "core"
    },
    {
      "DownstreamPathTemplate": "/api/COM/{everything}",
      "DownstreamScheme": "https",
      "DownstreamHostAndPorts": [
        {
          "Host": "hris-sit-as-core.azurewebsites.net",
          "Port": "443"
        }
      ],
      "UpstreamPathTemplate": "/{version}/COM/{everything}",
      "UpstreamHttpMethod": ["GET", "POST", "PUT", "DELETE"],
      "SwaggerKey": "core"
    },
    {
      "DownstreamPathTemplate": "/api/EMP/{everything}",
      "DownstreamScheme": "https",
      "DownstreamHostAndPorts": [
        {
          "Host": "hris-sit-as-core.azurewebsites.net",
          "Port": "443"
        }
      ],
      "UpstreamPathTemplate": "/{version}/EMP/{everything}",
      "UpstreamHttpMethod": ["GET", "POST", "PUT", "DELETE"],
      "SwaggerKey": "core"
    },
    {
      "DownstreamPathTemplate": "/api/employee/{everything}",
      "DownstreamScheme": "https",
      "DownstreamHostAndPorts": [
        {
          "Host": "hris-sit-as-employment.azurewebsites.net",
          "Port": "443"
        }
      ],
      "UpstreamPathTemplate": "/employee/{everything}",
      "UpstreamHttpMethod": ["GET", "POST"],
      "AuthenticationOptions": {
        "AuthenticationProviderKey": "Bearer",
        "AllowedScopes": []
      },
      "SwaggerKey": "employment"
    },
    {
      "DownstreamPathTemplate": "/api/ManageEntity/{everything}",
      "DownstreamScheme": "https",
      "DownstreamHostAndPorts": [
        {
          "Host": "hris-sit-as-employment.azurewebsites.net",
          "Port": "443"
        }
      ],
      "UpstreamPathTemplate": "/ManageEntity/{everything}",
      "UpstreamHttpMethod": ["GET", "POST", "PUT"],
      "AuthenticationOptions": {
        "AuthenticationProviderKey": "Bearer",
        "AllowedScopes": []
      },
      "SwaggerKey": "employment"
    },
    {
      "DownstreamPathTemplate": "/api/tenant",
      "DownstreamScheme": "https",
      "DownstreamHostAndPorts": [
        {
          "Host": "hris-sit-as-employment.azurewebsites.net",
          "Port": "443"
        }
      ],
      "UpstreamPathTemplate": "/tenant",
      "UpstreamHttpMethod": ["GET"],
      "SwaggerKey": "employment"
    },
    {
      "DownstreamPathTemplate": "/api/navigation",
      "DownstreamScheme": "https",
      "DownstreamHostAndPorts": [
        {
          "Host": "hris-sit-as-employment.azurewebsites.net",
          "Port": "443"
        }
      ],
      "UpstreamPathTemplate": "/navigation",
      "UpstreamHttpMethod": ["GET"],
      "AuthenticationOptions": {
        "AuthenticationProviderKey": "Bearer",
        "AllowedScopes": []
      },
      "SwaggerKey": "employment"
    },
    {
      "DownstreamPathTemplate": "/api/company/{everything}",
      "DownstreamScheme": "https",
      "DownstreamHostAndPorts": [
        {
          "Host": "hris-sit-as-employment.azurewebsites.net",
          "Port": "443"
        }
      ],
      "UpstreamPathTemplate": "/company/{everything}",
      "UpstreamHttpMethod": ["GET"],
      "AuthenticationOptions": {
        "AuthenticationProviderKey": "Bearer",
        "AllowedScopes": []
      },
      "SwaggerKey": "employment"
    },
    {
      "DownstreamPathTemplate": "/api/CAM/{everything}",
      "DownstreamScheme": "https",
      "DownstreamHostAndPorts": [
        {
          "Host": "hris-sit-as-employment.azurewebsites.net",
          "Port": "443"
        }
      ],
      "UpstreamPathTemplate": "/{version}/empl/CAM/{everything}",
      "UpstreamHttpMethod": ["GET", "POST", "PUT", "DELETE"],
      "SwaggerKey": "employment"
    },
    {
      "DownstreamPathTemplate": "/api/CAM/{everything}",
      "DownstreamScheme": "https",
      "DownstreamHostAndPorts": [
        {
          "Host": "hris-sit-as-employment.azurewebsites.net",
          "Port": "443"
        }
      ],
      "UpstreamPathTemplate": "/{version}/CAM/",
      "UpstreamHttpMethod": ["GET", "POST", "PUT", "DELETE"],
      "AuthenticationOptions": {
        "AuthenticationProviderKey": "Bearer",
        "AllowedScopes": []
      },
      "SwaggerKey": "employment"
    },
    {
      "DownstreamPathTemplate": "/api/EMP/{everything}",
      "DownstreamScheme": "https",
      "DownstreamHostAndPorts": [
        {
          "Host": "hris-sit-as-employment.azurewebsites.net",
          "Port": "443"
        }
      ],
      "UpstreamPathTemplate": "/{version}/empl/EMP/{everything}",
      "UpstreamHttpMethod": ["GET", "POST", "PUT", "DELETE"],
      "SwaggerKey": "employment"
    },
    {
      "DownstreamPathTemplate": "/api/CFG/{everything}",
      "DownstreamScheme": "https",
      "DownstreamHostAndPorts": [
        {
          "Host": "hris-sit-as-employment.azurewebsites.net",
          "Port": "443"
        }
      ],
      "UpstreamPathTemplate": "/{version}/empl/CFG/{everything}",
      "UpstreamHttpMethod": ["GET", "POST", "PUT", "DELETE"],
      "SwaggerKey": "employment"
    },
    {
      "DownstreamPathTemplate": "/api/COM/{everything}",
      "DownstreamScheme": "https",
      "DownstreamHostAndPorts": [
        {
          "Host": "hris-sit-as-employment.azurewebsites.net",
          "Port": "443"
        }
      ],
      "UpstreamPathTemplate": "/{version}/empl/COM/{everything}",
      "UpstreamHttpMethod": ["GET", "POST", "PUT", "DELETE"],
      "SwaggerKey": "employment"
    },
    {
      "DownstreamPathTemplate": "/api/PAY/{everything}",
      "DownstreamScheme": "https",
      "DownstreamHostAndPorts": [
        {
          "Host": "hris-sit-as-employment.azurewebsites.net",
          "Port": "443"
        }
      ],
      "UpstreamPathTemplate": "/{version}/empl/PAY/{everything}",
      "UpstreamHttpMethod": ["GET", "POST", "PUT", "DELETE"],
      "SwaggerKey": "employment"
    }
  ],
  "SwaggerEndPoints": [
    {
      "Key": "core",
      "Config": [
        {
          "Name": "Core API",
          "Version": "v1.0",
          "Url": "https://hris-sit-as-core.azurewebsites.net/swagger/v1/swagger.json"
        }
      ]
    },
    {
      "Key": "employment",
      "Config": [
        {
          "Name": "Employment API",
          "Version": "v1.0",
          "Url": "https://hris-sit-as-employment.azurewebsites.net/swagger/v1/swagger.json"
        }
      ]
    }
  ]
}
